noble_prize_datacamp.R
…
####################### Counting the number of prizes won by male and female recipients.
nobel %>% group_by(Sex) %>% count()

## # A tibble: 3 x 2
## # Groups:   Sex [3]
##   Sex        n
##   <chr>  <int>
## 1 Female    50
## 2 Male     893
## 3 <NA>      26

####################### Counting the number of prizes won by different nationalities.
nobel %>% group_by(`Birth Country`)%>% count()

## # A tibble: 122 x 2
## # Groups:   Birth Country [122]
##    `Birth Country`                              n
##    <chr>                                    <int>
##  1 Argentina                                    4
##  2 Australia                                   11
##  3 Austria                                     15
##  4 Austria-Hungary (Austria)                    2
##  5 Austria-Hungary (Bosnia and Herzegovina)     1
##  6 Austria-Hungary (Croatia)                    1
##  7 Austria-Hungary (Czech Republic)             4
##  8 Austria-Hungary (Hungary)                    3
##  9 Austria-Hungary (Poland)                     1
## 10 Austria-Hungary (Slovenia)                   1
## #  with 112 more rows
…
